Fecha de ejecución: 2021-01-06
Hora de ejecución: 05:24:39.135977
------------------------------
exactitud-validacion: 1.0
layers: [4, 10, 8, 6, 4, 1]
alpha: 0.01
lambd: 1.5
iterations: 4000
keep_prob: 0.75
------------------------------
------------------------------
exactitud-validacion: 1.0
layers: [4, 10, 8, 6, 4, 1]
alpha: 0.01
lambd: 7.5
iterations: 2000
keep_prob: 1
------------------------------
------------------------------
exactitud-validacion: 1.0
layers: [4, 10, 8, 6, 4, 1]
alpha: 0.005
lambd: 1
iterations: 7500
keep_prob: 0.9
------------------------------
------------------------------
exactitud-validacion: 1.0
layers: [4, 10, 8, 6, 4, 1]
alpha: 0.001
lambd: 0.01
iterations: 4000
keep_prob: 0.97
------------------------------
------------------------------
exactitud-validacion: 1.0
layers: [4, 10, 8, 6, 4, 1]
alpha: 0.0001
lambd: 0.05
iterations: 5000
keep_prob: 1
------------------------------
------------------------------
exactitud-validacion: 1.0
layers: [4, 10, 8, 6, 4, 1]
alpha: 0.0005
lambd: 2.5
iterations: 1500
keep_prob: 1
------------------------------
------------------------------
exactitud-validacion: 1.0
layers: [4, 10, 8, 6, 4, 1]
alpha: 0.01
lambd: 1.5
iterations: 4000
keep_prob: 0.75
------------------------------
------------------------------
exactitud-validacion: 1.0
layers: [4, 10, 8, 6, 4, 1]
alpha: 0.01
lambd: 7.5
iterations: 2000
keep_prob: 1
------------------------------
------------------------------
exactitud-validacion: 1.0
layers: [4, 10, 8, 6, 4, 1]
alpha: 0.005
lambd: 1
iterations: 7500
keep_prob: 0.9
------------------------------
------------------------------
exactitud-validacion: 1.0
layers: [4, 10, 8, 6, 4, 1]
alpha: 0.01
lambd: 1.5
iterations: 750
keep_prob: 0.97
------------------------------
------------------------------
exactitud-validacion: 1.0
layers: [4, 10, 8, 6, 4, 1]
alpha: 0.0005
lambd: 2.5
iterations: 1500
keep_prob: 1
------------------------------
------------------------------
exactitud-validacion: 1.0
layers: [4, 10, 8, 6, 4, 1]
alpha: 0.01
lambd: 7.5
iterations: 2000
keep_prob: 1
------------------------------
------------------------------
exactitud-validacion: 1.0
layers: [4, 10, 8, 6, 4, 1]
alpha: 0.01
lambd: 1.5
iterations: 2000
keep_prob: 0.75
------------------------------
------------------------------
exactitud-validacion: 1.0
layers: [4, 10, 8, 6, 4, 1]
alpha: 0.0005
lambd: 2.5
iterations: 2000
keep_prob: 1
------------------------------
------------------------------
exactitud-validacion: 1.0
layers: [4, 10, 8, 6, 4, 1]
alpha: 0.01
lambd: 1.5
iterations: 4000
keep_prob: 0.75
------------------------------
------------------------------
exactitud-validacion: 1.0
layers: [4, 10, 8, 6, 4, 1]
alpha: 0.0001
lambd: 7.5
iterations: 2000
keep_prob: 1
------------------------------
------------------------------
exactitud-validacion: 1.0
layers: [4, 10, 8, 6, 4, 1]
alpha: 0.01
lambd: 1.5
iterations: 2000
keep_prob: 1
------------------------------
------------------------------
exactitud-validacion: 1.0
layers: [4, 10, 8, 6, 4, 1]
alpha: 0.0005
lambd: 1.5
iterations: 1500
keep_prob: 1
------------------------------
------------------------------
exactitud-validacion: 1.0
layers: [4, 10, 8, 6, 4, 1]
alpha: 0.0005
lambd: 2.5
iterations: 1500
keep_prob: 1
------------------------------
------------------------------
exactitud-validacion: 1.0
layers: [4, 10, 8, 6, 4, 1]
alpha: 0.01
lambd: 7.5
iterations: 2000
keep_prob: 1
------------------------------
------------------------------
exactitud-validacion: 1.0
layers: [4, 10, 8, 6, 4, 1]
alpha: 0.01
lambd: 2.5
iterations: 2000
keep_prob: 0.75
------------------------------
------------------------------
exactitud-validacion: 1.0
layers: [4, 10, 8, 6, 4, 1]
alpha: 0.01
lambd: 2.5
iterations: 1250
keep_prob: 1
------------------------------
------------------------------
exactitud-validacion: 1.0
layers: [4, 10, 8, 6, 4, 1]
alpha: 0.01
lambd: 5.5
iterations: 2000
keep_prob: 1
------------------------------
------------------------------
exactitud-validacion: 1.0
layers: [4, 10, 8, 6, 4, 1]
alpha: 0.01
lambd: 7.5
iterations: 2000
keep_prob: 1
------------------------------
------------------------------
exactitud-validacion: 1.0
layers: [4, 10, 8, 6, 4, 1]
alpha: 0.0005
lambd: 2.5
iterations: 1500
keep_prob: 1
------------------------------
------------------------------
exactitud-validacion: 1.0
layers: [4, 10, 8, 6, 4, 1]
alpha: 0.0005
lambd: 2.5
iterations: 1500
keep_prob: 1
------------------------------
------------------------------
exactitud-validacion: 1.0
layers: [4, 10, 8, 6, 4, 1]
alpha: 0.0005
lambd: 1.5
iterations: 2000
keep_prob: 1
------------------------------
------------------------------
exactitud-validacion: 1.0
layers: [4, 10, 8, 6, 4, 1]
alpha: 0.01
lambd: 2.5
iterations: 1500
keep_prob: 1
------------------------------
------------------------------
exactitud-validacion: 1.0
layers: [4, 10, 8, 6, 4, 1]
alpha: 0.005
lambd: 7.5
iterations: 2000
keep_prob: 1
------------------------------
------------------------------
exactitud-validacion: 1.0
layers: [4, 10, 8, 6, 4, 1]
alpha: 0.01
lambd: 7.5
iterations: 2000
keep_prob: 1
------------------------------
------------------------------
exactitud-validacion: 1.0
layers: [4, 10, 8, 6, 4, 1]
alpha: 0.0005
lambd: 2.5
iterations: 1500
keep_prob: 1
------------------------------
------------------------------
exactitud-validacion: 1.0
layers: [4, 10, 8, 6, 4, 1]
alpha: 0.0005
lambd: 2.5
iterations: 1500
keep_prob: 1
------------------------------
------------------------------
exactitud-validacion: 1.0
layers: [4, 10, 8, 6, 4, 1]
alpha: 0.0005
lambd: 7.5
iterations: 1500
keep_prob: 1
------------------------------
------------------------------
exactitud-validacion: 1.0
layers: [4, 10, 8, 6, 4, 1]
alpha: 0.0005
lambd: 2.5
iterations: 1500
keep_prob: 1
------------------------------
------------------------------
exactitud-validacion: 1.0
layers: [4, 10, 8, 6, 4, 1]
alpha: 0.0005
lambd: 7.5
iterations: 2000
keep_prob: 1
------------------------------
------------------------------
exactitud-validacion: 1.0
layers: [4, 10, 8, 6, 4, 1]
alpha: 0.0005
lambd: 2.5
iterations: 1500
keep_prob: 1
------------------------------
------------------------------
exactitud-validacion: 1.0
layers: [4, 10, 8, 6, 4, 1]
alpha: 0.01
lambd: 2.5
iterations: 2000
keep_prob: 1
------------------------------
------------------------------
exactitud-validacion: 1.0
layers: [4, 10, 8, 6, 4, 1]
alpha: 0.0005
lambd: 7.5
iterations: 2000
keep_prob: 1
------------------------------
------------------------------
exactitud-validacion: 1.0
layers: [4, 10, 8, 6, 4, 1]
alpha: 0.01
lambd: 7.5
iterations: 2000
keep_prob: 1
------------------------------
------------------------------
exactitud-validacion: 1.0
layers: [4, 10, 8, 6, 4, 1]
alpha: 0.0005
lambd: 2.5
iterations: 1500
keep_prob: 1
------------------------------
------------------------------
exactitud-validacion: 1.0
layers: [4, 10, 8, 6, 4, 1]
alpha: 0.0005
lambd: 0.5
iterations: 1500
keep_prob: 1
------------------------------
------------------------------
exactitud-validacion: 1.0
layers: [4, 10, 8, 6, 4, 1]
alpha: 0.01
lambd: 2.5
iterations: 1500
keep_prob: 1
------------------------------
------------------------------
exactitud-validacion: 1.0
layers: [4, 10, 8, 6, 4, 1]
alpha: 0.01
lambd: 7.5
iterations: 2000
keep_prob: 1
------------------------------
------------------------------
exactitud-validacion: 1.0
layers: [4, 10, 8, 6, 4, 1]
alpha: 0.0005
lambd: 2.5
iterations: 1500
keep_prob: 1
------------------------------
------------------------------
exactitud-validacion: 1.0
layers: [4, 10, 8, 6, 4, 1]
alpha: 0.01
lambd: 2.5
iterations: 1500
keep_prob: 1
------------------------------
------------------------------
exactitud-validacion: 1.0
layers: [4, 10, 8, 6, 4, 1]
alpha: 0.0001
lambd: 7.5
iterations: 1500
keep_prob: 1
------------------------------
------------------------------
exactitud-validacion: 1.0
layers: [4, 10, 8, 6, 4, 1]
alpha: 0.0005
lambd: 7.5
iterations: 1500
keep_prob: 1
------------------------------
------------------------------
exactitud-validacion: 1.0
layers: [4, 10, 8, 6, 4, 1]
alpha: 0.01
lambd: 2.5
iterations: 1500
keep_prob: 1
------------------------------
------------------------------
exactitud-validacion: 1.0
layers: [4, 10, 8, 6, 4, 1]
alpha: 0.01
lambd: 2.5
iterations: 2000
keep_prob: 0.85
------------------------------
------------------------------
exactitud-validacion: 1.0
layers: [4, 10, 8, 6, 4, 1]
alpha: 0.01
lambd: 7.5
iterations: 2000
keep_prob: 1
------------------------------
------------------------------
exactitud-validacion: 1.0
layers: [4, 10, 8, 6, 4, 1]
alpha: 0.0005
lambd: 2.5
iterations: 1500
keep_prob: 1
------------------------------
------------------------------
exactitud-validacion: 1.0
layers: [4, 10, 8, 6, 4, 1]
alpha: 0.01
lambd: 2.5
iterations: 1500
keep_prob: 1
------------------------------
------------------------------
exactitud-validacion: 1.0
layers: [4, 10, 8, 6, 4, 1]
alpha: 0.01
lambd: 1.5
iterations: 1500
keep_prob: 1
------------------------------
------------------------------
exactitud-validacion: 1.0
layers: [4, 10, 8, 6, 4, 1]
alpha: 0.01
lambd: 2.5
iterations: 1500
keep_prob: 1
------------------------------
------------------------------
exactitud-validacion: 1.0
layers: [4, 10, 8, 6, 4, 1]
alpha: 0.01
lambd: 2.5
iterations: 2000
keep_prob: 1
------------------------------
------------------------------
exactitud-validacion: 1.0
layers: [4, 10, 8, 6, 4, 1]
alpha: 0.01
lambd: 7.5
iterations: 2000
keep_prob: 1
------------------------------
------------------------------
exactitud-validacion: 1.0
layers: [4, 10, 8, 6, 4, 1]
alpha: 0.0005
lambd: 2.5
iterations: 1500
keep_prob: 1
------------------------------
------------------------------
exactitud-validacion: 1.0
layers: [4, 10, 8, 6, 4, 1]
alpha: 0.01
lambd: 2.5
iterations: 1500
keep_prob: 1
------------------------------
------------------------------
exactitud-validacion: 1.0
layers: [4, 10, 8, 6, 4, 1]
alpha: 0.01
lambd: 7.5
iterations: 2000
keep_prob: 1
------------------------------
------------------------------
exactitud-validacion: 1.0
layers: [4, 10, 8, 6, 4, 1]
alpha: 0.0005
lambd: 2.5
iterations: 1500
keep_prob: 1
------------------------------
------------------------------
exactitud-validacion: 1.0
layers: [4, 10, 8, 6, 4, 1]
alpha: 0.01
lambd: 2.5
iterations: 2000
keep_prob: 1
------------------------------
------------------------------
exactitud-validacion: 1.0
layers: [4, 10, 8, 6, 4, 1]
alpha: 0.01
lambd: 7.5
iterations: 2000
keep_prob: 0.3
------------------------------
------------------------------
exactitud-validacion: 1.0
layers: [4, 10, 8, 6, 4, 1]
alpha: 0.01
lambd: 0.1
iterations: 1500
keep_prob: 1
------------------------------
------------------------------
exactitud-validacion: 1.0
layers: [4, 10, 8, 6, 4, 1]
alpha: 0.01
lambd: 2.5
iterations: 1500
keep_prob: 1
------------------------------
------------------------------
exactitud-validacion: 1.0
layers: [4, 10, 8, 6, 4, 1]
alpha: 0.01
lambd: 2.5
iterations: 2000
keep_prob: 1
------------------------------
------------------------------
exactitud-validacion: 1.0
layers: [4, 10, 8, 6, 4, 1]
alpha: 0.01
lambd: 7.5
iterations: 1500
keep_prob: 1
------------------------------
------------------------------
exactitud-validacion: 1.0
layers: [4, 10, 8, 6, 4, 1]
alpha: 0.01
lambd: 7.5
iterations: 2000
keep_prob: 1
------------------------------
------------------------------
exactitud-validacion: 1.0
layers: [4, 10, 8, 6, 4, 1]
alpha: 0.01
lambd: 7.5
iterations: 1500
keep_prob: 1
------------------------------
------------------------------
exactitud-validacion: 1.0
layers: [4, 10, 8, 6, 4, 1]
alpha: 0.01
lambd: 2.5
iterations: 1500
keep_prob: 1
------------------------------
------------------------------
exactitud-validacion: 1.0
layers: [4, 10, 8, 6, 4, 1]
alpha: 0.01
lambd: 2.5
iterations: 2000
keep_prob: 1
------------------------------
------------------------------
exactitud-validacion: 1.0
layers: [4, 10, 8, 6, 4, 1]
alpha: 0.01
lambd: 7.5
iterations: 1500
keep_prob: 1
------------------------------
------------------------------
exactitud-validacion: 1.0
layers: [4, 10, 8, 6, 4, 1]
alpha: 0.01
lambd: 0
iterations: 1500
keep_prob: 1
------------------------------
------------------------------
exactitud-validacion: 1.0
layers: [4, 10, 8, 6, 4, 1]
alpha: 0.01
lambd: 0.05
iterations: 1500
keep_prob: 1
------------------------------
------------------------------
exactitud-validacion: 1.0
layers: [4, 10, 8, 6, 4, 1]
alpha: 0.01
lambd: 2.5
iterations: 7500
keep_prob: 1
------------------------------
------------------------------
exactitud-validacion: 1.0
layers: [4, 10, 8, 6, 4, 1]
alpha: 0.01
lambd: 7.5
iterations: 1500
keep_prob: 1
------------------------------
------------------------------
exactitud-validacion: 1.0
layers: [4, 10, 8, 6, 4, 1]
alpha: 0.01
lambd: 7.5
iterations: 1500
keep_prob: 1
------------------------------
------------------------------
exactitud-validacion: 1.0
layers: [4, 10, 8, 6, 4, 1]
alpha: 0.01
lambd: 2.5
iterations: 1500
keep_prob: 1
------------------------------
------------------------------
exactitud-validacion: 1.0
layers: [4, 10, 8, 6, 4, 1]
alpha: 0.01
lambd: 7.5
iterations: 2000
keep_prob: 1
------------------------------
------------------------------
exactitud-validacion: 0.9986807387862797
layers: [4, 10, 8, 6, 4, 1]
alpha: 0.01
lambd: 1.5
iterations: 750
keep_prob: 0.97
------------------------------
------------------------------
exactitud-validacion: 0.9986807387862797
layers: [4, 10, 8, 6, 4, 1]
alpha: 0.001
lambd: 0.01
iterations: 4000
keep_prob: 0.97
------------------------------
------------------------------
exactitud-validacion: 0.9986807387862797
layers: [4, 10, 8, 6, 4, 1]
alpha: 0.01
lambd: 1.5
iterations: 4000
keep_prob: 0.75
------------------------------
------------------------------
exactitud-validacion: 0.9986807387862797
layers: [4, 10, 8, 6, 4, 1]
alpha: 0.01
lambd: 7.5
iterations: 2000
keep_prob: 1
------------------------------
------------------------------
exactitud-validacion: 0.9986807387862797
layers: [4, 10, 8, 6, 4, 1]
alpha: 0.01
lambd: 2.5
iterations: 2000
keep_prob: 0.3
------------------------------
------------------------------
exactitud-validacion: 0.9986807387862797
layers: [4, 10, 8, 6, 4, 1]
alpha: 0.0005
lambd: 7.5
iterations: 2000
keep_prob: 1
------------------------------
------------------------------
exactitud-validacion: 0.996042216358839
layers: [4, 10, 8, 6, 4, 1]
alpha: 0.01
lambd: 2.5
iterations: 2000
keep_prob: 0.75
------------------------------
------------------------------
exactitud-validacion: 0.9947229551451188
layers: [4, 10, 8, 6, 4, 1]
alpha: 0.01
lambd: 2.5
iterations: 1500
keep_prob: 0.5
------------------------------
------------------------------
exactitud-validacion: 0.9934036939313984
layers: [4, 10, 8, 6, 4, 1]
alpha: 0.05
lambd: 2.5
iterations: 4000
keep_prob: 0.85
------------------------------
------------------------------
exactitud-validacion: 0.9934036939313984
layers: [4, 10, 8, 6, 4, 1]
alpha: 0.0005
lambd: 2.5
iterations: 1500
keep_prob: 0.75
------------------------------
------------------------------
exactitud-validacion: 0.9920844327176781
layers: [4, 10, 8, 6, 4, 1]
alpha: 0.0005
lambd: 0.1
iterations: 1500
keep_prob: 1
------------------------------
------------------------------
exactitud-validacion: 0.9907651715039578
layers: [4, 10, 8, 6, 4, 1]
alpha: 0.01
lambd: 1.5
iterations: 2000
keep_prob: 0.75
------------------------------
------------------------------
exactitud-validacion: 0.9894459102902374
layers: [4, 10, 8, 6, 4, 1]
alpha: 0.0005
lambd: 1.5
iterations: 5000
keep_prob: 0.75
------------------------------
------------------------------
exactitud-validacion: 0.9894459102902374
layers: [4, 10, 8, 6, 4, 1]
alpha: 0.0005
lambd: 2.5
iterations: 1500
keep_prob: 1
------------------------------
------------------------------
exactitud-validacion: 0.9894459102902374
layers: [4, 10, 8, 6, 4, 1]
alpha: 0.01
lambd: 7.5
iterations: 2000
keep_prob: 0.85
------------------------------
------------------------------
exactitud-validacion: 0.9868073878627969
layers: [4, 10, 8, 6, 4, 1]
alpha: 0.01
lambd: 2.5
iterations: 1500
keep_prob: 1
------------------------------
------------------------------
exactitud-validacion: 0.9854881266490765
layers: [4, 10, 8, 6, 4, 1]
alpha: 0.0005
lambd: 2.5
iterations: 1500
keep_prob: 1
------------------------------
------------------------------
exactitud-validacion: 0.9854881266490765
layers: [4, 10, 8, 6, 4, 1]
alpha: 0.0005
lambd: 7.5
iterations: 1500
keep_prob: 0.97
------------------------------
------------------------------
exactitud-validacion: 0.9828496042216359
layers: [4, 10, 8, 6, 4, 1]
alpha: 0.01
lambd: 2.5
iterations: 2000
keep_prob: 1
------------------------------
------------------------------
exactitud-validacion: 0.978891820580475
layers: [4, 10, 8, 6, 4, 1]
alpha: 0.0005
lambd: 2.5
iterations: 2000
keep_prob: 1
------------------------------
------------------------------
exactitud-validacion: 0.974934036939314
layers: [4, 10, 8, 6, 4, 1]
alpha: 0.0005
lambd: 2.5
iterations: 1500
keep_prob: 1
------------------------------
------------------------------
exactitud-validacion: 0.9722955145118733
layers: [4, 10, 8, 6, 4, 1]
alpha: 0.0005
lambd: 7.5
iterations: 2000
keep_prob: 1
------------------------------
------------------------------
exactitud-validacion: 0.9683377308707124
layers: [4, 10, 8, 6, 4, 1]
alpha: 0.01
lambd: 1.5
iterations: 2000
keep_prob: 0.75
------------------------------
------------------------------
exactitud-validacion: 0.9630606860158312
layers: [4, 10, 8, 6, 4, 1]
alpha: 0.0005
lambd: 2.5
iterations: 1500
keep_prob: 1
------------------------------
------------------------------
exactitud-validacion: 0.9511873350923483
layers: [4, 10, 8, 6, 4, 1]
alpha: 0.0005
lambd: 2.5
iterations: 1500
keep_prob: 1
------------------------------
------------------------------
exactitud-validacion: 0.9485488126649076
layers: [4, 10, 8, 6, 4, 1]
alpha: 0.01
lambd: 2.5
iterations: 1500
keep_prob: 1
------------------------------
------------------------------
exactitud-validacion: 0.924802110817942
layers: [4, 10, 8, 6, 4, 1]
alpha: 0.0005
lambd: 7.5
iterations: 1500
keep_prob: 1
------------------------------
------------------------------
exactitud-validacion: 0.9089709762532981
layers: [4, 10, 8, 6, 4, 1]
alpha: 0.0001
lambd: 2.5
iterations: 2000
keep_prob: 0.75
------------------------------
------------------------------
exactitud-validacion: 0.9063324538258575
layers: [4, 10, 8, 6, 4, 1]
alpha: 5e-05
lambd: 7.5
iterations: 5000
keep_prob: 0.65
------------------------------
------------------------------
exactitud-validacion: 0.8918205804749341
layers: [4, 10, 8, 6, 4, 1]
alpha: 0.01
lambd: 7.5
iterations: 2000
keep_prob: 1
------------------------------
------------------------------
exactitud-validacion: 0.8759894459102903
layers: [4, 10, 8, 6, 4, 1]
alpha: 0.0005
lambd: 2.5
iterations: 1500
keep_prob: 1
------------------------------
------------------------------
exactitud-validacion: 0.8548812664907651
layers: [4, 10, 8, 6, 4, 1]
alpha: 0.05
lambd: 2.5
iterations: 4000
keep_prob: 0.85
------------------------------
------------------------------
exactitud-validacion: 0.8153034300791556
layers: [4, 10, 8, 6, 4, 1]
alpha: 0.0001
lambd: 0.05
iterations: 5000
keep_prob: 1
------------------------------
------------------------------
exactitud-validacion: 0.787598944591029
layers: [4, 10, 8, 6, 4, 1]
alpha: 0.1
lambd: 1
iterations: 7500
keep_prob: 1
------------------------------
------------------------------
exactitud-validacion: 0.7071240105540897
layers: [4, 10, 8, 6, 4, 1]
alpha: 0.0005
lambd: 7.5
iterations: 2000
keep_prob: 1
------------------------------
------------------------------
exactitud-validacion: 0.6992084432717678
layers: [4, 10, 8, 6, 4, 1]
alpha: 0.5
lambd: 7.5
iterations: 1500
keep_prob: 1
------------------------------
------------------------------
exactitud-validacion: 0.6306068601583114
layers: [4, 10, 8, 6, 4, 1]
alpha: 0.0005
lambd: 2.5
iterations: 1500
keep_prob: 1
------------------------------
------------------------------
exactitud-validacion: 0.6187335092348285
layers: [4, 10, 8, 6, 4, 1]
alpha: 0.1
lambd: 1
iterations: 7500
keep_prob: 1
------------------------------
------------------------------
exactitud-validacion: 0.58311345646438
layers: [4, 10, 8, 6, 4, 1]
alpha: 0.0005
lambd: 2.5
iterations: 1500
keep_prob: 1
------------------------------
------------------------------
exactitud-validacion: 0.5395778364116095
layers: [4, 10, 8, 6, 4, 1]
alpha: 0.0001
lambd: 1.5
iterations: 2000
keep_prob: 0.75
------------------------------
------------------------------
exactitud-validacion: 0.5343007915567283
layers: [4, 10, 8, 6, 4, 1]
alpha: 5e-05
lambd: 7.5
iterations: 5000
keep_prob: 0.65
------------------------------
------------------------------
exactitud-validacion: 0.40105540897097625
layers: [4, 10, 8, 6, 4, 1]
alpha: 0.0005
lambd: 2.5
iterations: 1500
keep_prob: 1
------------------------------
